taller4
…
  if (!is.null(out)) out$serial <- serial_est[i]
  if (is.list(out)) out <- out |> unnest('value')
  return(out)
})

data_final<- do.call(rbind,r)

data_final<-  rename(data_final, Fecha_Hora = timestamp, valores = value, profundidad =  z)
data_final

# A tibble: 9,429 × 4
   Fecha_Hora       valores profundidad serial  
   <chr>              <dbl>       <dbl> <chr>   
 1 2022-09-01 00:00    31.9          90 z6-08721
 2 2022-09-01 01:00    31.9          90 z6-08721
 3 2022-09-01 02:00    31.9          90 z6-08721
 4 2022-09-01 03:00    31.9          90 z6-08721
 5 2022-09-01 04:00    31.9          90 z6-08721
 6 2022-09-01 05:00    31.9          90 z6-08721
 7 2022-09-01 06:00    31.9          90 z6-08721
 8 2022-09-01 07:00    31.9          90 z6-08721
 9 2022-09-01 08:00    31.9          90 z6-08721
10 2022-09-01 09:00    31.9          90 z6-08721
# … with 9,419 more rows
…
1.2.2 Utilice across y mutate junto con una función anónima (lambda)

iris |> 
  group_by(Species) |>
  mutate(across(where(is.numeric),.fns = \(x) x/rqmean))

# A tibble: 150 × 5
# Groups:   Species [3]
   Sepal.Length Sepal.Width Petal.Length Petal.Width Species
          <dbl>       <dbl>        <dbl>       <dbl> <fct>  
 1         2.12        1.45        0.581      0.0829 setosa 
 2         2.03        1.24        0.581      0.0829 setosa 
 3         1.95        1.33        0.539      0.0829 setosa 
 4         1.91        1.29        0.622      0.0829 setosa 
 5         2.07        1.49        0.581      0.0829 setosa 
 6         2.24        1.62        0.705      0.166  setosa 
 7         1.91        1.41        0.581      0.124  setosa 
 8         2.07        1.41        0.622      0.0829 setosa 
 9         1.82        1.20        0.581      0.0829 setosa 
10         2.03        1.29        0.622      0.0415 setosa 
# … with 140 more rows

-1.2.3 Utilice across y mutate junto con una función nombrada (lambda)

rqmeanfun <- function(x,y){group_by(y) |>
    mutate(across(where(is.numeric))) |> 
    mutate(rqmean_ = x/rqmean)}

rqmeanfun(iris$Sepal.Width, iris[iris$Species,])

# A tibble: 150 × 6
   Sepal.Length Sepal.Width Petal.Length Petal.Width Species rqmean_
          <dbl>       <dbl>        <dbl>       <dbl> <fct>     <dbl>
 1          5.1         3.5          1.4         0.2 setosa     1.45
 2          5.1         3.5          1.4         0.2 setosa     1.24
 3          5.1         3.5          1.4         0.2 setosa     1.33
 4          5.1         3.5          1.4         0.2 setosa     1.29
 5          5.1         3.5          1.4         0.2 setosa     1.49
 6          5.1         3.5          1.4         0.2 setosa     1.62
 7          5.1         3.5          1.4         0.2 setosa     1.41
 8          5.1         3.5          1.4         0.2 setosa     1.41
 9          5.1         3.5          1.4         0.2 setosa     1.20
10          5.1         3.5          1.4         0.2 setosa     1.29
# … with 140 more rows
…
1.3.4 Transforme la función en una función anónima (lambda) y úsela con mutate con los datos iris

iris |> 
  group_by(Species) |>
  mutate(across(where(is.numeric),.fns = \(x) cut(x, 3, labels = c('Bajo', 'Medio', 'Alto'))))

# A tibble: 150 × 5
# Groups:   Species [3]
   Sepal.Length Sepal.Width Petal.Length Petal.Width Species
   <fct>        <fct>       <fct>        <fct>       <fct>  
 1 Medio        Medio       Medio        Bajo        setosa 
 2 Medio        Bajo        Medio        Bajo        setosa 
 3 Bajo         Medio       Bajo         Bajo        setosa 
 4 Bajo         Medio       Medio        Bajo        setosa 
 5 Medio        Medio       Medio        Bajo        setosa 
 6 Alto         Alto        Alto         Medio       setosa 
 7 Bajo         Medio       Medio        Medio       setosa 
 8 Medio        Medio       Medio        Bajo        setosa 
 9 Bajo         Bajo        Medio        Bajo        setosa 
10 Medio        Medio       Medio        Bajo        setosa 
# … with 140 more rows

1.3.5 Utilice la función para clasificar los set de datos agromet en todas las variables climáticas, salvo en grados_dias y horas_frio, use la función como anónima.

meta_agro |>
  group_by(mes = floor_date(fecha_de_alta, '1 month')) |>
  mutate(across(6:8,.fns=clasifica)) 

# A tibble: 417 × 9
# Groups:   mes [23]
     ema institucion nombre_ema      comuna       region latitud longi…¹ fecha…²
   <dbl> <chr>       <chr>           <chr>        <chr>  <fct>   <fct>   <fct>  
 1     1 FDF         Azapa1          Arica        Arica… High    Med     Low    
 2     2 FDF         Azapa2          Arica        Arica… High    Med     Low    
 3     3 FDF         Tranque Lautaro Tierra Amar… Ataca… High    Med     High   
 4     4 FDF         Jotabeche       Tierra Amar… Ataca… High    Med     High   
 5     5 FDF         Hornitos        Tierra Amar… Ataca… High    Med     High   
 6     6 FDF         Copiapo         Copiapó      Ataca… High    Med     Med    
 7     7 FDF         Bodega          Copiapó      Ataca… High    Med     Med    
 8     8 FDF         Vallenar        Freirina     Ataca… High    Med     Med    
 9     9 FDF         Alto del Carmen Alto del Ca… Ataca… High    Med     Low    
10    10 FDF         El Palqui       Monte Patria Coqui… Med     Med     Med    
# … with 407 more rows, 1 more variable: mes <dttm>, and abbreviated variable
#   names ¹​longitud, ²​fecha_de_alta
…
