Taller 3
…
  purrr::pluck(data_nest$data, 5,4,1)

[1] 68.8

3.agregue la variable precipitación extraida de la columna anidada como una variable adicional

4.aplane (desanide) la variable de precipitación anterior.

data_nest |> 
  hoist(data, 'precipitacion_horaria') |>
  unnest(precipitacion_horaria) |> #4
  select(-data)

# A tibble: 1,196,832 × 2
   station_id precipitacion_horaria
        <dbl>                 <dbl>
 1          2                     0
 2          2                     0
 3          2                     0
 4          2                     0
 5          2                     0
 6          2                     0
 7          2                     0
 8          2                     0
 9          2                     0
10          2                     0
# … with 1,196,822 more rows
…
Rows: 1,196,832
Columns: 3
$ fecha_hora            <dttm> 2021-01-01 03:00:00, 2021-01-01 03:00:00, 2021-…
$ station_id            <dbl> 2, 4, 7, 9, 10, 11, 12, 15, 20, 26, 31, 38, 39, …
$ precipitacion_horaria <dbl> 0, 0, NA, 0, 0, 0, 0, NA, 0, 0, 0, 0, 0, 0, 0, 0…

6.relicé el rellenado de los valores NA de precipitación horaria tomando el valor anterior.

data_agro |>
  fill(precipitacion_horaria, .direction = "down") 

# A tibble: 1,196,832 × 13
   station…¹ fecha_hora          temp_…² preci…³ humed…⁴ presi…⁵ radia…⁶ veloc…⁷
       <dbl> <dttm>                <dbl>   <dbl>   <dbl>   <dbl>   <dbl>   <dbl>
 1         2 2021-01-01 03:00:00    20.5       0    66     1012.       0     0  
 2         2 2021-01-01 04:00:00    20.4       0    66     1012.       0     0.4
 3         2 2021-01-01 05:00:00    20.4       0    65.5   1012.       0     0.4
 4         2 2021-01-01 06:00:00    20.4       0    64.5   1012.       0     0  
 5         2 2021-01-01 07:00:00    20.8       0    62.8   1013.      39     0  
 6         2 2021-01-01 08:00:00    21.5       0    61.2   1013.     156     0  
 7         2 2021-01-01 09:00:00    22.4       0    58.8   1013.     417     2.2
 8         2 2021-01-01 10:00:00    23.8       0    56     1013.     728     3.1
 9         2 2021-01-01 11:00:00    24.8       0    52.8   1013.     868     5.4
10         2 2021-01-01 12:00:00    25.4       0    50     1012.     944     5.4
# … with 1,196,822 more rows, 5 more variables: temp_minima <dbl>,
#   temp_maxima <dbl>, direccion_del_viento <dbl>, grados_dia <dbl>,
#   horas_frio <dbl>, and abbreviated variable names ¹​station_id,
#   ²​temp_promedio_aire, ³​precipitacion_horaria, ⁴​humed_rel_promedio,
#   ⁵​presion_atmosferica, ⁶​radiacion_solar_max, ⁷​veloc_max_viento

2 Ejercicios {dplyr} (parte 1)

2.Filtrar los datos para los meses de Mayo a Julio en las estaciones asignadas.

data_agro |>
  mutate(fecha_hora  = as_date(data_agro$fecha_hora))

# A tibble: 1,196,832 × 13
   station_id fecha_hora temp_…¹ preci…² humed…³ presi…⁴ radia…⁵ veloc…⁶ temp_…⁷
        <dbl> <date>       <dbl>   <dbl>   <dbl>   <dbl>   <dbl>   <dbl>   <dbl>
 1          2 2021-01-01    20.5       0    66     1012.       0     0      20.5
 2          2 2021-01-01    20.4       0    66     1012.       0     0.4    20.3
 3          2 2021-01-01    20.4       0    65.5   1012.       0     0.4    20.4
 4          2 2021-01-01    20.4       0    64.5   1012.       0     0      20.4
 5          2 2021-01-01    20.8       0    62.8   1013.      39     0      20.6
 6          2 2021-01-01    21.5       0    61.2   1013.     156     0      21.1
 7          2 2021-01-01    22.4       0    58.8   1013.     417     2.2    22.2
 8          2 2021-01-01    23.8       0    56     1013.     728     3.1    23.3
 9          2 2021-01-01    24.8       0    52.8   1013.     868     5.4    24.6
10          2 2021-01-01    25.4       0    50     1012.     944     5.4    25.4
# … with 1,196,822 more rows, 4 more variables: temp_maxima <dbl>,
#   direccion_del_viento <dbl>, grados_dia <dbl>, horas_frio <dbl>, and
#   abbreviated variable names ¹​temp_promedio_aire, ²​precipitacion_horaria,
#   ³​humed_rel_promedio, ⁴​presion_atmosferica, ⁵​radiacion_solar_max,
#   ⁶​veloc_max_viento, ⁷​temp_minima

  filter(data_agro,fecha_hora  >= ymd(20210501) & fecha_hora < ymd(20210801))

# A tibble: 302,496 × 13
   station…¹ fecha_hora          temp_…² preci…³ humed…⁴ presi…⁵ radia…⁶ veloc…⁷
       <dbl> <dttm>                <dbl>   <dbl>   <dbl>   <dbl>   <dbl>   <dbl>
 1         2 2021-05-01 00:00:00    14.4       0    66.2   1018.       0     0.9
 2         2 2021-05-01 01:00:00    13.9       0    66.8   1018.       0     0.9
 3         2 2021-05-01 02:00:00    13.8       0    66.5   1017.       0     0.9
 4         2 2021-05-01 03:00:00    13.5       0    67     1016.       0     1.8
 5         2 2021-05-01 04:00:00    13.4       0    67     1016.       0     0.9
 6         2 2021-05-01 05:00:00    12.4       0    68.5   1016.       0     0.9
 7         2 2021-05-01 06:00:00    12.5       0    69.8   1017.       0     0.9
 8         2 2021-05-01 07:00:00    14.6       0    67.5   1017.      44     0.9
 9         2 2021-05-01 08:00:00    16.5       0    63.5   1018.     105     0.4
10         2 2021-05-01 09:00:00    18.3       0    59.8   1018      236     0.9
# … with 302,486 more rows, 5 more variables: temp_minima <dbl>,
#   temp_maxima <dbl>, direccion_del_viento <dbl>, grados_dia <dbl>,
#   horas_frio <dbl>, and abbreviated variable names ¹​station_id,
#   ²​temp_promedio_aire, ³​precipitacion_horaria, ⁴​humed_rel_promedio,
#   ⁵​presion_atmosferica, ⁶​radiacion_solar_max, ⁷​veloc_max_viento

3.Tome una muestra de 1000 filas de forma aleatoria sin reemplazo.

slice_sample(data_agro, n=1000)

# A tibble: 1,000 × 13
   station…¹ fecha_hora          temp_…² preci…³ humed…⁴ presi…⁵ radia…⁶ veloc…⁷
       <dbl> <dttm>                <dbl>   <dbl>   <dbl>   <dbl>   <dbl>   <dbl>
 1       289 2021-07-22 03:00:00    -0.8     0      96.9    994.     0       1.6
 2       286 2021-07-06 14:00:00     9.7     0      84.8   1008    257.      3.5
 3       638 2021-04-16 08:00:00    11.1     0      94.4   1014    100.      1.3
 4       159 2021-05-19 16:00:00    17.2     0      51.6    960    256.      0.6
 5       333 2021-04-04 19:00:00    10.3     0      50.6    752.     0       0.3
 6       252 2021-10-03 00:00:00     6.5     0      67.4      0      0.1     3.6
 7       507 2021-04-15 04:00:00     3.4     0      97.5   1014.     0       0  
 8        39 2021-06-06 12:00:00    17       0      50.5   1018.   587       1.8
 9       418 2021-01-12 09:00:00    17       0      52.6   1018    542       2  
10       667 2021-01-30 19:00:00    16.8     0.1    96.4      0     38.2     0.1
# … with 990 more rows, 5 more variables: temp_minima <dbl>, temp_maxima <dbl>,
#   direccion_del_viento <dbl>, grados_dia <dbl>, horas_frio <dbl>, and
#   abbreviated variable names ¹​station_id, ²​temp_promedio_aire,
#   ³​precipitacion_horaria, ⁴​humed_rel_promedio, ⁵​presion_atmosferica,
#   ⁶​radiacion_solar_max, ⁷​veloc_max_viento

4.Para cada estación seleccione los valores máximos de precipitación horaria.

data_agro |>
  group_by(station_id) |>
  arrange(desc(precipitacion_horaria)) |>
  slice(n=1) |>
  select(station_id,fecha_hora,precipitacion_horaria)

# A tibble: 137 × 3
# Groups:   station_id [137]
   station_id fecha_hora          precipitacion_horaria
        <dbl> <dttm>                              <dbl>
 1          2 2021-01-14 23:00:00                   0.3
 2          4 2021-08-24 23:00:00                   3.6
 3          7 2021-01-01 03:00:00                  NA  
 4          9 2021-08-24 21:00:00                   2.5
 5         10 2021-06-23 13:00:00                   3.1
 6         11 2021-06-23 13:00:00                   1  
 7         12 2021-06-26 01:00:00                   2  
 8         15 2021-06-23 11:00:00                   2.6
 9         20 2021-08-19 00:00:00                   3.8
10         26 2021-08-24 20:00:00                   6.8
# … with 127 more rows

5. Seleccione las columnas que tienen temperatura, además de station_id y fecha_hora.

data_agro |>
select(contains('temp'),station_id, fecha_hora)

# A tibble: 1,196,832 × 5
   temp_promedio_aire temp_minima temp_maxima station_id fecha_hora         
                <dbl>       <dbl>       <dbl>      <dbl> <dttm>             
 1               20.5        20.5        20.6          2 2021-01-01 03:00:00
 2               20.4        20.3        20.5          2 2021-01-01 04:00:00
 3               20.4        20.4        20.4          2 2021-01-01 05:00:00
 4               20.4        20.4        20.6          2 2021-01-01 06:00:00
 5               20.8        20.6        20.9          2 2021-01-01 07:00:00
 6               21.5        21.1        21.9          2 2021-01-01 08:00:00
 7               22.4        22.2        22.7          2 2021-01-01 09:00:00
 8               23.8        23.3        24.5          2 2021-01-01 10:00:00
 9               24.8        24.6        25            2 2021-01-01 11:00:00
10               25.4        25.4        25.5          2 2021-01-01 12:00:00
# … with 1,196,822 more rows
…
Rows: 1,196,832
Columns: 1
$ fecha_hora <dttm> 2021-01-01 03:00:00, 2021-01-01 04:00:00, 2021-01-01 05:00…

3 Ejercicios {dplyr} (parte 2)

###1 .Agrupe los datos de las climáticos de agromet por estación (group_by)

data_agro |>
  group_by(station_id)

# A tibble: 1,196,832 × 13
# Groups:   station_id [137]
   station…¹ fecha_hora          temp_…² preci…³ humed…⁴ presi…⁵ radia…⁶ veloc…⁷
       <dbl> <dttm>                <dbl>   <dbl>   <dbl>   <dbl>   <dbl>   <dbl>
 1         2 2021-01-01 03:00:00    20.5       0    66     1012.       0     0  
 2         2 2021-01-01 04:00:00    20.4       0    66     1012.       0     0.4
 3         2 2021-01-01 05:00:00    20.4       0    65.5   1012.       0     0.4
 4         2 2021-01-01 06:00:00    20.4       0    64.5   1012.       0     0  
 5         2 2021-01-01 07:00:00    20.8       0    62.8   1013.      39     0  
 6         2 2021-01-01 08:00:00    21.5       0    61.2   1013.     156     0  
 7         2 2021-01-01 09:00:00    22.4       0    58.8   1013.     417     2.2
 8         2 2021-01-01 10:00:00    23.8       0    56     1013.     728     3.1
 9         2 2021-01-01 11:00:00    24.8       0    52.8   1013.     868     5.4
10         2 2021-01-01 12:00:00    25.4       0    50     1012.     944     5.4
# … with 1,196,822 more rows, 5 more variables: temp_minima <dbl>,
#   temp_maxima <dbl>, direccion_del_viento <dbl>, grados_dia <dbl>,
#   horas_frio <dbl>, and abbreviated variable names ¹​station_id,
#   ²​temp_promedio_aire, ³​precipitacion_horaria, ⁴​humed_rel_promedio,
#   ⁵​presion_atmosferica, ⁶​radiacion_solar_max, ⁷​veloc_max_viento
2.Haga un sumarizado de promedio mensual de las variables de temperatura para cada estación (group_by, summarize y across).

data_agro_promm <-
  data_agro |> 
  group_by(station_id) |>
  summarise(across(contains("temp"),\(x) mean( x, na.rm = T), .names = "{.col}_avg"))

3. Renombre y reordene las variables como temp_prom, temp_max y Temp_min (rename_with y `relocate``)

data_agro_prom_names <- data_agro_promm |> 
  rename_with(contains("temp"),.fn = \(x) substr(x, start =1,stop =8))

data_agro_prom_names

# A tibble: 137 × 4
   station_id temp_pro temp_min temp_max
        <dbl>    <dbl>    <dbl>    <dbl>
 1          2     18.3     18.1     18.6
 2          4     15.4     14.7     16.1
 3          7    NaN      NaN      NaN  
 4          9     17.4     16.7     18.1
 5         10     15.6     15.0     16.1
 6         11     15.8     15.1     16.5
 7         12     19.3     18.5     20.1
 8         15     16.3     15.7     16.9
 9         20     15.5     14.9     16.1
10         26     15.7     14.9     16.5
# … with 127 more rows

data_agro_prom_names |>
  relocate(temp_max, .after = temp_pro) |>
  relocate(temp_min, .after = last_col())

# A tibble: 137 × 4
   station_id temp_pro temp_max temp_min
        <dbl>    <dbl>    <dbl>    <dbl>
 1          2     18.3     18.6     18.1
 2          4     15.4     16.1     14.7
 3          7    NaN      NaN      NaN  
 4          9     17.4     18.1     16.7
 5         10     15.6     16.1     15.0
 6         11     15.8     16.5     15.1
 7         12     19.3     20.1     18.5
 8         15     16.3     16.9     15.7
 9         20     15.5     16.1     14.9
10         26     15.7     16.5     14.9
# … with 127 more rows
…
4. Ejercicios {dplyr} {parte 3}

1.Con los datos de agromet, calcule el promedio de temperatura (media, máxima, mínima) por día y estación. Utilice summarize y across.

data_agro_prom_4 <-
  data_agro |>
  group_by(fecha_hora, station_id) |>
  summarise(across(contains("temp"),\(x) mean( x, na.rm = T), .names = "{.col}_avg"))

`summarise()` has grouped output by 'fecha_hora'. You can override using the
`.groups` argument.

data_agro_prom_4

# A tibble: 1,196,832 × 5
# Groups:   fecha_hora [8,736]
   fecha_hora          station_id temp_promedio_aire_avg temp_minima_avg temp_…¹
   <dttm>                   <dbl>                  <dbl>           <dbl>   <dbl>
 1 2021-01-01 03:00:00          2                   20.5            20.5    20.6
 2 2021-01-01 03:00:00          4                   14.3            14.2    14.4
 3 2021-01-01 03:00:00          7                  NaN             NaN     NaN  
 4 2021-01-01 03:00:00          9                   16.3            16.1    16.6
 5 2021-01-01 03:00:00         10                   16.5            15.7    17.4
 6 2021-01-01 03:00:00         11                   14              13.7    14.4
 7 2021-01-01 03:00:00         12                   15.5            15.3    15.8
 8 2021-01-01 03:00:00         15                  NaN             NaN     NaN  
 9 2021-01-01 03:00:00         20                   14.2            14.1    14.3
10 2021-01-01 03:00:00         26                   14              13.4    14.9
# … with 1,196,822 more rows, and abbreviated variable name ¹​temp_maxima_avg
