Taller 2
…
#145 filas estaciones 
#cantidad de variables
cols <- sapply(data,ncol)
vars <- sapply(data,nrow)
# varibles unicas 
vars_un<- unique(vars)
ind785 <- vars%in%c(7,8,5)
data785 <- data[ind785]
# los indicadores de las estaciones que tienen 7 variables

serial_est<- agv_meta$serial[ind785]

Utilizando R-base, readr, tidyr y lo visto de {dplyr} Debe extraer los datos de humedad de suelo a tres profundidades (30cm, 60cm y 90cm) desde el set de datos data_agvAPI.rds y utilizar el set de datos metadata_estaciones_agvAPI.rds para extaer la información necesaria de las estaciones. Debe realizarlo con todas las estaciones asignadas a usted. Debe crear un set de datos tidy (ej, tibble) que tenga las columnas de: serial, profundidad, fecha_hora, valor. Este set de datos debe contener los datos de humedad de suelo de todas las estaciones AGV asignadas a usted.

# A tibble: 9,429 × 4
   Fecha_Hora       valores profundidad serial  
   <chr>              <dbl>       <dbl> <chr>   
 1 2022-09-01 00:00    31.9          90 z6-08721
 2 2022-09-01 01:00    31.9          90 z6-08721
 3 2022-09-01 02:00    31.9          90 z6-08721
 4 2022-09-01 03:00    31.9          90 z6-08721
 5 2022-09-01 04:00    31.9          90 z6-08721
 6 2022-09-01 05:00    31.9          90 z6-08721
 7 2022-09-01 06:00    31.9          90 z6-08721
 8 2022-09-01 07:00    31.9          90 z6-08721
 9 2022-09-01 08:00    31.9          90 z6-08721
10 2022-09-01 09:00    31.9          90 z6-08721
# … with 9,419 more rows
…
